…
``` r
library(rsample)
#> Loading required package: tidyr
data("attrition")
# downsample
attrition <- attrition[sample(seq_len(nrow(attrition)), 100), ]
```

``` r
library(iv)
iv_obj <- iv(attrition, m = 20)
iv_obj
#> # Independend Validation with 20 samples in the start set 
#> # A tibble: 80 x 2
#>    splits         id       
#>    <list>         <chr>    
#>  1 <split [20/1]> Sample021
#>  2 <split [21/1]> Sample022
#>  3 <split [22/1]> Sample023
#>  4 <split [23/1]> Sample024
#>  5 <split [24/1]> Sample025
#>  6 <split [25/1]> Sample026
#>  7 <split [26/1]> Sample027
#>  8 <split [27/1]> Sample028
#>  9 <split [28/1]> Sample029
#> 10 <split [29/1]> Sample030
#> # … with 70 more rows
```
…
